duration, latestComment, numComments, numLikes, numPositiveComments, numViews, rank, title, uploaddate, videoUrl, videoid
0:01:01,,0,135,0,833952,1,Khan Academy Kids: Fun, Free, Engaging Learning App for Kids Ages 2-8,19/08/2021, 21:18:23,https://i.ytimg.com/vi/0oBWmT031Tk/mqdefault.jpg,0oBWmT031Tk
0:00:31,,0,48,0,315010,2,Welcome to Circle Time | Fun, Free Books & Activities For Kids Ages 2-8,24/08/2021, 21:41:28,https://i.ytimg.com/vi/qPt_DFDyH1U/mqdefault.jpg,qPt_DFDyH1U
0:00:58,,0,213,0,576299,3,Introducing Khan Academy Kids: A Fun, Free Educational App For Kids Ages 2-8,24/03/2020, 20:27:19,https://i.ytimg.com/vi/sfT2lkOUop0/mqdefault.jpg,sfT2lkOUop0
0:19:28,,0,116,0,332862,4,Kristi Yamaguchi Reads Cara's Kindness | Helping Our Friends | Circle Time with Khan Academy Kids,06/09/2021, 17:00:10,https://i.ytimg.com/vi/snozZstWbhQ/mqdefault.jpg,snozZstWbhQ
0:00:59,,0,508,0,148159,5,Welcome to the Khan Academy Kids YouTube Channel,06/04/2020, 22:30:16,https://i.ytimg.com/vi/TBLQx8uCic8/mqdefault.jpg,TBLQx8uCic8
0:15:10,,0,132,0,647255,6,Baby Owl Storytime | Understanding The Feelings of Others | Circle Time with Khan Academy Kids,17/08/2020, 17:00:56,https://i.ytimg.com/vi/jiZ56fZVu_o/mqdefault.jpg,jiZ56fZVu_o
0:09:21,,0,69,0,6874,7,Bumblebees | All About Bees | Waggle Dance with Climate Science | Circle Time with Khan Academy Kids,28/03/2022, 17:00:11,https://i.ytimg.com/vi/HkugM4kLfCo/mqdefault.jpg,HkugM4kLfCo
0:23:43,,0,207,0,600431,8,What Is Diversity? | Celebrating People And Their Differences | Circle Time with Khan Academy Kids,05/10/2020, 17:00:11,https://i.ytimg.com/vi/MbNRwQ8CCBk/mqdefault.jpg,MbNRwQ8CCBk
0:17:52,,0,88,0,285677,9,Doing Your Best | Create Your Own Olympic Games | Make A Torch | Circle Time with Khan Academy Kids,12/07/2021, 17:00:10,https://i.ytimg.com/vi/DXjMbFCoad4/mqdefault.jpg,DXjMbFCoad4
0:27:49,,0,147,0,433052,10,Recycling Read Aloud For Kids | Fun Eco-Friendly Art Projects | Circle Time with Khan Academy Kids,15/02/2021, 18:00:13,https://i.ytimg.com/vi/WvskqYhZ6i4/mqdefault.jpg,WvskqYhZ6i4
0:08:24,,0,19,0,3268,11,Playful Piglets | Read About Baby Pigs | Farm Animal Fun | Circle Time with Khan Academy Kids,25/04/2022, 17:00:11,https://i.ytimg.com/vi/m5ap-XE4NoQ/mqdefault.jpg,m5ap-XE4NoQ
0:12:48,,0,80,0,92001,12,Sledding Storytime with Ollo And Reya | Let’s Play In The Snow | Circle Time with Khan Academy Kids,29/11/2021, 18:00:13,https://i.ytimg.com/vi/Qj20Iu8RF5E/mqdefault.jpg,Qj20Iu8RF5E
0:11:47,,0,84,0,10768,13,How The Khan Kids Characters Got Their Names | Make Name Art | Circle Time with Khan Academy Kids,24/01/2022, 18:00:10,https://i.ytimg.com/vi/yhMT_1kkAxw/mqdefault.jpg,yhMT_1kkAxw
0:14:13,,0,87,0,7856,14,National Reading Month | Read Three Books About Friendship | Circle Time with Khan Academy Kids,21/02/2022, 18:00:11,https://i.ytimg.com/vi/DEXPC2dQ4b4/mqdefault.jpg,DEXPC2dQ4b4
0:13:01,,0,87,0,12081,15,Kodi And Friends Build A Treehouse | Creative Projects For Kids | Circle Time with Khan Academy Kids,03/01/2022, 08:00:09,https://i.ytimg.com/vi/zxU5f0vWT3w/mqdefault.jpg,zxU5f0vWT3w
0:16:35,,0,58,0,206601,16,How To Plant A Seed | Gardening & Book Reading for Kids | Circle Time with Khan Academy Kids,20/05/2020, 17:00:10,https://i.ytimg.com/vi/O6g7Q31fdIs/mqdefault.jpg,O6g7Q31fdIs
0:20:19,,0,210,0,152721,17,What Is Justice? | Conversations with Children About Being Fair | Circle Time with Khan Academy Kids,30/10/2020, 17:00:09,https://i.ytimg.com/vi/ltj3rhj2xJc/mqdefault.jpg,ltj3rhj2xJc
0:08:33,,0,123,0,14813,18,Gratitude Storytime | Helping Friends | Squirrel And Chipmunk | Circle Time with Khan Academy Kids,18/10/2021, 17:00:09,https://i.ytimg.com/vi/BOwRIBrHd_s/mqdefault.jpg,BOwRIBrHd_s
0:17:38,,0,45,0,136613,19,Old MacDonald | Baby Horses & Farm Animals | Exercises for Kids | Circle Time with Khan Academy Kids,22/06/2020, 17:00:10,https://i.ytimg.com/vi/asGiendUSR8/mqdefault.jpg,asGiendUSR8
0:13:51,,0,41,0,129274,20,Baby Dogs And Puppy Fun | Taking Care of Pets | Circle Time with Khan Academy Kids,01/06/2020, 17:00:10,https://i.ytimg.com/vi/fQFL40rcybw/mqdefault.jpg,fQFL40rcybw
0:08:32,,0,63,0,101548,21,Learn About Ladybugs | Nature Walk & Art | Circle Time with Khan Academy Kids,20/07/2020, 17:00:32,https://i.ytimg.com/vi/UrFABMet0Zo/mqdefault.jpg,UrFABMet0Zo
0:23:51,,0,188,0,103450,22,What Is Race? | How To Talk To Kids About Identity And Race | Circle Time with Khan Academy Kids,19/10/2020, 17:00:10,https://i.ytimg.com/vi/Zynqkcfn8UE/mqdefault.jpg,Zynqkcfn8UE
0:20:36,,0,50,0,109973,23,Walking In The Jungle | Baby Monkeys Book Reading for Kids | Circle Time with Khan Academy Kids,04/05/2020, 17:00:09,https://i.ytimg.com/vi/dsNe9Kw1Xgw/mqdefault.jpg,dsNe9Kw1Xgw
0:02:48,,0,309,0,67870,24,Get Started with Khan Academy Kids,13/04/2020, 22:38:06,https://i.ytimg.com/vi/6FcrDdM08q0/mqdefault.jpg,6FcrDdM08q0
0:10:12,,0,123,0,86211,25,How To Draw Reya The Red Panda | Character Drawing for Kids | Circle Time with Khan Academy Kids,17/04/2020, 17:00:10,https://i.ytimg.com/vi/_4HZO82cLp8/mqdefault.jpg,_4HZO82cLp8
0:17:00,,0,55,0,87434,26,5 Little Speckled Frogs | Tree Frog Facts  | Let's Exercise! | Circle Time with Khan Academy Kids,08/06/2020, 17:00:11,https://i.ytimg.com/vi/iYepQfXaD7E/mqdefault.jpg,iYepQfXaD7E
0:17:37,,0,59,0,86133,27,Elephant Animal Facts | Workout for Kids with Coach Kelli | Circle Time with Khan Academy Kids,25/05/2020, 17:00:10,https://i.ytimg.com/vi/8tI1PCxqw9Q/mqdefault.jpg,8tI1PCxqw9Q
0:19:54,,0,73,0,78249,28,5 Little Ducks | Learn About Baby Ducks | Workout for Kids | Circle Time with Khan Academy Kids,15/06/2020, 17:00:11,https://i.ytimg.com/vi/DvpghZq6Kkw/mqdefault.jpg,DvpghZq6Kkw
0:20:01,,0,135,0,44205,29,All About Dinosaurs | Read And Learn About Tyrannosaurus Rex! | Circle Time with Khan Academy Kids,12/04/2021, 17:00:14,https://i.ytimg.com/vi/-lCULi584hM/mqdefault.jpg,-lCULi584hM
0:08:58,,0,135,0,63578,30,How To Draw Kodi The Bear | Character Drawing for Kids | Circle Time with Khan Academy Kids,10/04/2020, 17:00:11,https://i.ytimg.com/vi/Nflprw-Ni-I/mqdefault.jpg,Nflprw-Ni-I
0:02:05,,0,203,0,40709,31,Using the Khan Academy Kids Library,14/04/2020, 22:00:14,https://i.ytimg.com/vi/mYSOFonNY3w/mqdefault.jpg,mYSOFonNY3w
0:19:24,,0,156,0,39669,32,Healthy Habits And Routines For Kids | Read About Ollo’s Bike | Circle Time with Khan Academy Kids,15/03/2021, 17:00:14,https://i.ytimg.com/vi/Ypx8q38m2yY/mqdefault.jpg,Ypx8q38m2yY
0:14:39,,0,101,0,61998,33,This Is The Way We Wash Our Hands | Staying Healthy | Circle Time with Khan Academy Kids,15/04/2020, 17:00:10,https://i.ytimg.com/vi/hungOoC1o_M/mqdefault.jpg,hungOoC1o_M
0:23:25,,0,197,0,57142,34,Count & Compare Numbers | Snow Monkey Storytime | Get Well Soon | Circle Time With Khan Academy Kids,24/08/2020, 17:00:09,https://i.ytimg.com/vi/xzry4El55bc/mqdefault.jpg,xzry4El55bc
0:15:55,,0,154,0,44799,35,Sink Or Float | Water Science Experiment for Kids | Surf's Up | Circle Time with Khan Academy Kids,21/09/2020, 17:00:21,https://i.ytimg.com/vi/xMnRsuw4ZBk/mqdefault.jpg,xMnRsuw4ZBk
0:17:43,,0,132,0,23951,36,Ocean Life Storytime | Learn Fun Facts About Humpback Whales | Circle Time with Khan Academy Kids,14/06/2021, 17:00:11,https://i.ytimg.com/vi/oa9ZUtsc5Gs/mqdefault.jpg,oa9ZUtsc5Gs
0:14:20,,0,28,0,52329,37,Color A Butterfly! | Read Two Books About Butterflies In Nature | Circle Time with Khan Academy Kids,09/04/2020, 17:00:11,https://i.ytimg.com/vi/8DysTJcSwuY/mqdefault.jpg,8DysTJcSwuY
0:11:52,,0,106,0,47052,38,How To Draw Peck The Bird | Character Drawing for Kids | Circle Time with Khan Academy Kids,03/04/2020, 17:00:13,https://i.ytimg.com/vi/gTbQK2UyJV0/mqdefault.jpg,gTbQK2UyJV0
0:20:58,,0,164,0,34875,39,Snow Day Read Aloud | Winter Holiday Celebrations | Circle Time with Khan Academy Kids,21/12/2020, 18:00:10,https://i.ytimg.com/vi/o-Z1qJzDjCw/mqdefault.jpg,o-Z1qJzDjCw
0:18:54,,0,77,0,50189,40,Wheels On The Bus | Beach Day Birthday Book Reading for Kids | Circle Time with Khan Academy Kids,20/04/2020, 17:00:09,https://i.ytimg.com/vi/GyklZ2dKSPk/mqdefault.jpg,GyklZ2dKSPk
0:15:11,,0,115,0,29764,41,Ollo Learns How To Ice Skate | Read About Seal Pups | Circle Time with Khan Academy Kids,18/01/2021, 18:00:10,https://i.ytimg.com/vi/9wglJOMO1mU/mqdefault.jpg,9wglJOMO1mU
0:07:18,,0,53,0,37929,42,Hip Hop for Kids | Learn New Dance Moves | Circle Time with Khan Academy Kids,29/04/2020, 17:00:11,https://i.ytimg.com/vi/pBGliZ3NNYo/mqdefault.jpg,pBGliZ3NNYo
0:13:13,,0,39,0,42130,43,How To Draw Ollo The Elephant | Character Drawing for Kids | Circle Time with Khan Academy Kids,01/05/2020, 17:00:11,https://i.ytimg.com/vi/k4gJlovKDlQ/mqdefault.jpg,k4gJlovKDlQ
0:22:47,,0,200,0,48452,44,If You’re Happy And You Know It | Old Friends, New Friends | Circle Time with Khan Academy Kids,16/04/2020, 17:00:17,https://i.ytimg.com/vi/9hWwR2UYMaQ/mqdefault.jpg,9hWwR2UYMaQ
0:03:55,29/04/2022, 00:47:24,11,102,2,9634,45,Thank You Friends! | YouTube 100,000 Subscribers Celebration | Circle Time with Khan Academy Kids,02/08/2021, 17:00:10,https://i.ytimg.com/vi/x29ST7dCuwA/mqdefault.jpg,x29ST7dCuwA
0:16:46,,0,99,0,20089,46,Outer Space Adventures | Read Along with Asteroid And Comet | Circle Time with Khan Academy Kids,17/05/2021, 17:00:16,https://i.ytimg.com/vi/Vlweq_pB_wI/mqdefault.jpg,Vlweq_pB_wI
0:11:33,,0,88,0,36327,47,How To Draw Reya’s Bugs | Character Drawing for Kids | Circle Time with Khan Academy Kids,22/05/2020, 17:00:10,https://i.ytimg.com/vi/WLQbWe4JgZU/mqdefault.jpg,WLQbWe4JgZU
0:12:42,,0,87,0,36486,48,How To Draw Peck’s Robots | Character Drawing for Kids  | Circle Time with Khan Academy Kids,29/05/2020, 17:00:10,https://i.ytimg.com/vi/h5PrMyao5Nk/mqdefault.jpg,h5PrMyao5Nk
0:09:55,,0,57,0,34601,49,How To Make Slime | Storytime for Kids | Circle Time with Khan Academy Kids,27/04/2020, 17:00:11,https://i.ytimg.com/vi/lHFK_GuUhio/mqdefault.jpg,lHFK_GuUhio
0:20:24,,0,105,0,15409,50,Back To School Tips for Kids | Wellness Moves with Alo Yoga | Circle Time with Khan Academy Kids,09/08/2021, 17:00:10,https://i.ytimg.com/vi/8kiepEMrHfw/mqdefault.jpg,8kiepEMrHfw
0:05:53,,0,88,0,31487,51,What Do Heroes Do? | Hero In Training Read Aloud Book | Circle Time with Khan Academy Kids,27/03/2020, 17:00:09,https://i.ytimg.com/vi/sOKA0WVQQ8o/mqdefault.jpg,sOKA0WVQQ8o
0:22:44,,0,158,0,43240,52,Build A Toy House | Hello Song and Book Reading for Kids | Circle Time with Khan Academy Kids,13/04/2020, 17:00:11,https://i.ytimg.com/vi/My1IfS1ZV4c/mqdefault.jpg,My1IfS1ZV4c
0:10:40,,0,93,0,32145,53,How To Draw Ollo’s Bath Toys | Drawing & Coloring for Kids | Circle Time with Khan Academy Kids,12/06/2020, 17:00:10,https://i.ytimg.com/vi/er7huY9wNKs/mqdefault.jpg,er7huY9wNKs
0:21:54,,0,82,0,26403,54,Light Up The Night | Sleepover Storytime | Expressing Feelings | Circle Time with Khan Academy Kids,07/12/2020, 18:00:09,https://i.ytimg.com/vi/zaXmEC9zRaA/mqdefault.jpg,zaXmEC9zRaA
0:21:04,,0,82,0,26810,55,Counting To 9 | Autumn At The Orchard | Apples And Ostrich Eggs | Circle Time with Khan Academy Kids,23/11/2020, 18:00:10,https://i.ytimg.com/vi/vISVb-N1q00/mqdefault.jpg,vISVb-N1q00
0:19:35,,0,65,0,27473,56,Counting To 8 | Flower Fun Storytime | Making A New Friend | Circle Time with Khan Academy Kids,07/09/2020, 17:00:12,https://i.ytimg.com/vi/6lo-_zkG7fo/mqdefault.jpg,6lo-_zkG7fo
0:18:58,,0,101,0,27128,57,Kids Calendar | Create A Back To School Workspace | Count to 7 | Circle Time With Khan Academy Kids,10/08/2020, 17:00:10,https://i.ytimg.com/vi/JDEJ8AnHw_0/mqdefault.jpg,JDEJ8AnHw_0
0:21:18,,0,106,0,33619,58,Breakfast Time Book Reading & Cooking Show for Kids | Circle Time with Khan Academy Kids,08/04/2020, 17:00:10,https://i.ytimg.com/vi/5t98f4X6EsM/mqdefault.jpg,5t98f4X6EsM
0:03:43,,0,17,0,3214,59,Using Khan Academy Kids with Clever | Khan Academy Kids Teacher Tools,14/01/2022, 22:52:27,https://i.ytimg.com/vi/jRWnJv9__CU/mqdefault.jpg,jRWnJv9__CU
0:17:02,,0,99,0,29803,60,How To Draw Sandy The Dingo | Character Drawing for Kids | Circle Time with Khan Academy Kids,24/04/2020, 17:00:10,https://i.ytimg.com/vi/AAC_YOASCPk/mqdefault.jpg,AAC_YOASCPk
0:08:59,,0,81,0,7293,61,Into The Night Read Aloud | Bat Stories | Moon Crafts For Kids | Circle Time with Khan Academy Kids,27/09/2021, 17:00:11,https://i.ytimg.com/vi/e6xv5nt3g_o/mqdefault.jpg,e6xv5nt3g_o
0:13:37,,0,134,0,27569,62,3 Super Powers | Talking to Kids about Times of Change | Circle Time with Khan Academy Kids,26/03/2020, 17:00:12,https://i.ytimg.com/vi/HxvxFRIrn0I/mqdefault.jpg,HxvxFRIrn0I
0:17:16,,0,67,0,23522,63,Counting To 10 | How To Make A Fruit Salad | Circle Time with Khan Academy Kids,06/07/2020, 17:00:26,https://i.ytimg.com/vi/O9VHNE149qQ/mqdefault.jpg,O9VHNE149qQ
0:16:26,,0,82,0,24561,64,Seahorse & Jellyfish | Read About Coral Reefs | Circle Time with Khan Academy Kids,06/05/2020, 17:00:11,https://i.ytimg.com/vi/Kt16_bAOz7Q/mqdefault.jpg,Kt16_bAOz7Q
0:17:22,,0,73,0,24740,65,Visit The Farm | Harvest Time Read Aloud Book | Circle Time with Khan Academy Kids,31/03/2020, 15:00:11,https://i.ytimg.com/vi/-iqbxcSarQI/mqdefault.jpg,-iqbxcSarQI
0:15:59,,0,86,0,23043,66,Let's Go To The Zoo | Red Pandas Book Reading | Circle Time with Khan Academy Kids,28/04/2020, 17:00:10,https://i.ytimg.com/vi/LEW9Wlt8Yb8/mqdefault.jpg,LEW9Wlt8Yb8
0:12:59,,0,57,0,20678,67,Amazing Armadillos! | Book Reading And Animal Facts for Kids | Circle Time with Khan Academy Kids,23/04/2020, 17:00:23,https://i.ytimg.com/vi/3RnV4k4Zccg/mqdefault.jpg,3RnV4k4Zccg
0:03:36,,0,7,0,2265,68,Assigning Lessons | Khan Academy Kids Teacher Tools,14/01/2022, 22:51:18,https://i.ytimg.com/vi/ayblcTuSom4/mqdefault.jpg,ayblcTuSom4
0:05:01,,0,15,0,2425,69,Viewing Student Progress & Class Reports | Khan Academy Kids Teacher Tools,14/01/2022, 22:51:51,https://i.ytimg.com/vi/gRPCXV2qGXM/mqdefault.jpg,gRPCXV2qGXM
0:02:10,,0,106,0,12309,70,Teacher Tools on Khan Academy Kids!,27/04/2020, 23:39:03,https://i.ytimg.com/vi/VZdmWrAtOEQ/mqdefault.jpg,VZdmWrAtOEQ
0:10:18,,0,49,0,17296,71,How To Draw Sandy’s Instruments | Drawing & Coloring for Kids | Circle Time with Khan Academy Kids,05/06/2020, 17:00:10,https://i.ytimg.com/vi/A9yCWgugXak/mqdefault.jpg,A9yCWgugXak
0:16:26,,0,48,0,17986,72,Take A Virtual Vacation | Storytime With Wombat | See Australia | Circle Time With Khan Academy Kids,03/08/2020, 17:00:11,https://i.ytimg.com/vi/Op-k2BzkT38/mqdefault.jpg,Op-k2BzkT38
0:27:45,,0,22,0,1824,73,National Reading Month Chat: Caroline Hu Flexer and Kristi Yamaguchi,09/03/2022, 19:22:35,https://i.ytimg.com/vi/hQMRtOD3ZZQ/mqdefault.jpg,hQMRtOD3ZZQ
0:21:13,,0,62,0,21042,74,Head Shoulders Knees And Toes | Name That Tune for Kids | Circle Time with Khan Academy Kids,22/04/2020, 17:00:10,https://i.ytimg.com/vi/iKwXKGU2GSs/mqdefault.jpg,iKwXKGU2GSs
0:00:56,30/11/2021, 11:00:12,3,45,3,4489,75,Keep Khan Academy Kids & Khan Academy free | Go All in for Education to help little learners,30/11/2021, 09:00:25,https://i.ytimg.com/vi/X-CE716Q8gw/mqdefault.jpg,X-CE716Q8gw
0:13:53,,0,53,0,15478,76,Visit The County Fair | Book Reading for Kids | Circle Time with Khan Academy Kids,27/07/2020, 17:00:09,https://i.ytimg.com/vi/uyc3Xnh9I0o/mqdefault.jpg,uyc3Xnh9I0o
0:19:38,,0,56,0,18060,77,How To Make A Piñata | Piñata Party Book Reading for Kids | Circle Time with Khan Academy Kids,18/05/2020, 17:00:10,https://i.ytimg.com/vi/f2pQ3XwW4FE/mqdefault.jpg,f2pQ3XwW4FE
0:01:58,,0,5,0,1561,78,Setting Up a Class Account | Khan Academy Kids Teacher Tools,14/01/2022, 21:42:14,https://i.ytimg.com/vi/WPJTXBRCXO4/mqdefault.jpg,WPJTXBRCXO4
0:17:22,,0,56,0,16419,79,BINGO | Dog Facts for Kids | Workout with Coach Kelli,29/06/2020, 17:00:10,https://i.ytimg.com/vi/Ibl_xB15jz0/mqdefault.jpg,Ibl_xB15jz0
0:03:26,,0,9,0,1837,80,Using Class Codes | Khan Academy Kids Teacher Tools,14/01/2022, 21:43:10,https://i.ytimg.com/vi/dJlzyf3y_W0/mqdefault.jpg,dJlzyf3y_W0
0:11:51,,0,64,0,15209,81,Make A Thank You Card | Arts & Crafts for Kids | Circle Time with Khan Academy Kids,08/05/2020, 17:00:11,https://i.ytimg.com/vi/ItPFaK6po5w/mqdefault.jpg,ItPFaK6po5w
0:15:09,,0,53,0,14667,82,Putting On A Play | Theater & Costumes for Kids | Circle Time with Khan Academy Kids,13/07/2020, 17:00:26,https://i.ytimg.com/vi/a2pIeu3XGKY/mqdefault.jpg,a2pIeu3XGKY
0:11:34,,0,52,0,15159,83,Let Your Imagination Soar! | Sidewalk Chalk Read Aloud Book | Circle Time with Khan Academy Kids,01/04/2020, 17:00:10,https://i.ytimg.com/vi/QtWAFy1rk3w/mqdefault.jpg,QtWAFy1rk3w
0:04:55,,0,71,0,12246,84,How We Use Technology To Enhance Learning in Khan Academy Kids,31/03/2020, 23:00:00,https://i.ytimg.com/vi/4vKQmrnnRmQ/mqdefault.jpg,4vKQmrnnRmQ
0:06:27,,0,117,0,13162,85,Remote Learning Tips: Creating A Daily Schedule For Children Ages 2-7 | Khan Academy Kids,07/04/2020, 22:00:15,https://i.ytimg.com/vi/UGPdz5GOp4w/mqdefault.jpg,UGPdz5GOp4w
0:22:29,,0,41,0,15644,86,Trains! Book Reading for Kids | Exercises with Coach Kelli  | Circle Time with Khan Academy Kids,27/05/2020, 17:00:10,https://i.ytimg.com/vi/NW96OajyPYI/mqdefault.jpg,NW96OajyPYI
0:11:13,,0,70,0,14047,87,Play The Simon Says Game with Sandy And Friends | Circle Time with Khan Academy Kids,30/03/2020, 15:00:10,https://i.ytimg.com/vi/jM5SyvgS7j0/mqdefault.jpg,jM5SyvgS7j0
0:04:15,,0,211,0,10222,88,A Special Message to Parents During School Closures: You’ve Got This!,31/03/2020, 19:01:47,https://i.ytimg.com/vi/ke7cachdL0Y/mqdefault.jpg,ke7cachdL0Y
0:19:13,,0,51,0,13057,89,Let’s Make Lemonade! | Lemonade Stand Book & Activity for Kids | Circle Time with Khan Academy Kids,14/04/2020, 17:00:10,https://i.ytimg.com/vi/i_xgCD49UHA/mqdefault.jpg,i_xgCD49UHA
0:30:31,,0,84,0,14147,90,How do you balance online and offline learning in today’s stay-at-home world? | Webinar recording,23/04/2020, 22:00:02,https://i.ytimg.com/vi/3sI7aKm1qIw/mqdefault.jpg,3sI7aKm1qIw
0:12:16,,0,46,0,11196,91,Monster Dump Trucks | Look Inside A Camper Van With Dan's Vans! | Circle Time with Khan Academy Kids,21/04/2020, 17:00:09,https://i.ytimg.com/vi/NJCDaL5-TiA/mqdefault.jpg,NJCDaL5-TiA
0:14:44,,0,28,0,9120,92,Patience, Perseverance, and Mindfulness | What's a Duck to Do? | Circle Time with Khan Academy Kids,02/04/2020, 17:00:10,https://i.ytimg.com/vi/NR0DwNAUTOk/mqdefault.jpg,NR0DwNAUTOk
0:15:42,,0,36,0,9491,93,Flip, Jump, Roll! | Book Reading and Gymnastics for Kids | Circle Time with Khan Academy Kids,06/04/2020, 17:00:09,https://i.ytimg.com/vi/ZJgLxmmnTcY/mqdefault.jpg,ZJgLxmmnTcY
0:16:45,,0,29,0,8251,94,Let’s Talk About Our Favorite Things! | A Special Place | Circle Time with Khan Academy Kids,07/04/2020, 17:00:09,https://i.ytimg.com/vi/n1I02DTUz70/mqdefault.jpg,n1I02DTUz70
0:01:11,03/09/2021, 05:21:39,1,35,1,7103,95,Khan Academy Kids: Free, Award-Winning Educational App for Kids Ages 2-8,19/08/2021, 21:10:55,https://i.ytimg.com/vi/EEV-nPQiqnE/mqdefault.jpg,EEV-nPQiqnE
0:01:18,22/08/2021, 05:32:33,3,44,1,7295,96,Khan Academy Kids: Free, Award-Winning Educational App for Students in Pre-K through 2nd grade,19/08/2021, 21:14:53,https://i.ytimg.com/vi/3WLrcxU8LtI/mqdefault.jpg,3WLrcxU8LtI
0:34:28,23/09/2020, 19:23:28,4,66,3,17306,97,How to Keep Your Child Learning (and Happy!) at Home,04/09/2020, 19:58:57,https://i.ytimg.com/vi/HCvlkWVS608/mqdefault.jpg,HCvlkWVS608
0:31:10,10/06/2021, 16:36:21,6,88,3,9459,98,Setting a daily learning schedule for learners ages 2-7 | Webinar recording | Khan Academy Kids,02/04/2020, 16:18:20,https://i.ytimg.com/vi/NmeUrorZXpc/mqdefault.jpg,NmeUrorZXpc